{
  "FileVersion": 2,
  "Id": "d58c6df5-0f5b-4763-94a9-e5a3f038f4d5",
  "Items": [
    {
      "Id": "ad41eacf-1cbd-424e-b517-332bb27dc8a0",
      "Command": "BasicInjection"
    },
    {
      "Id": "8fc5b8fb-be19-4523-ac3a-2411396c8166",
      "Command": "BasicUpdateInjection"
    },
    {
      "Id": "78660bcb-ec17-49d6-ab7e-1c927c327c5a",
      "Command": "BasicInjectionFixed"
    },
    {
      "Id": "90d83996-65b9-481e-b449-3689f4d514fe",
      "Command": "ComplexInjection"
    },
    {
      "Id": "af7a1c2f-a5f6-4679-a6e1-40799094105a",
      "Command": "ComplexInjectionWhitelisted"
    }
  ]
}